{
  "project_info": {
    "project_number": "486741883783",
    "firebase_url": "https://sinebruhof-11947.firebaseio.com",
    "project_id": "sinebruhof-11947",
    "storage_bucket": "sinebruhof-11947.appspot.com"
  },
  "client": [
    {
      "client_info": {
        "mobilesdk_app_id": "1:486741883783:android:bbf8559030b3defe",
        "android_client_info": {
          "package_name": "ru.restoapp.sinebruhof"
        }
      },
      "oauth_client": [
        {
          "client_id": "486741883783-1a67s71k40iubbeeicu30qtuan3ovkrr.apps.googleusercontent.com",
          "client_type": 3
        }
      ],
      "api_key": [
        {
          "current_key": "AIzaSyACJlF_jHnoVSvTAfG8eIGRfSyJP7XkKmM"
        }
      ],
      "services": {
        "analytics_service": {
          "status": 1
        },
        "appinvite_service": {
          "status": 1,
          "other_platform_oauth_client": []
        },
        "ads_service": {
          "status": 2
        }
      }
    }
  ],
  "configuration_version": "1"
}